{
	"auths": {
		"gitlab.com": {
			"auth": "aW50b3VjaHdpZmk6eUJmMWdaZ2s2RDl6YXk0cDd0SzM="
		},
		"registry.gitlab.com": {
			"auth": "aW50b3VjaHdpZmk6S29wZW5nYWdlbjE5ODU="
		}
	},
	"HttpHeaders": {
		"User-Agent": "Docker-Client/19.03.13 (linux)"
	}
}